              Images                |               Predict               
features/vgg16_fc2/hai/50.npy     |      hai
features/vgg16_fc2/hai/125.npy     |      hai
features/vgg16_fc2/hai/30.npy     |      hai
features/vgg16_fc2/hai/161.npy     |      hai
features/vgg16_fc2/hai/45.npy     |      hai
features/vgg16_fc2/hai/3.npy     |      hai
features/vgg16_fc2/hai/129.npy     |      hai
features/vgg16_fc2/hai/12.npy     |      hai
features/vgg16_fc2/hai/148.npy     |      hai
features/vgg16_fc2/hai/113.npy     |      hai
features/vgg16_fc2/hai/27.npy     |      hai
features/vgg16_fc2/hai/187.npy     |      hai
features/vgg16_fc2/hai/99.npy     |      hai
features/vgg16_fc2/hai/109.npy     |      hai
features/vgg16_fc2/hai/166.npy     |      hai
features/vgg16_fc2/hai/111.npy     |      hai
features/vgg16_fc2/hai/152.npy     |      hai
features/vgg16_fc2/hai/67.npy     |      hai
features/vgg16_fc2/hai/108.npy     |      hai
features/vgg16_fc2/hai/16.npy     |      hai
features/vgg16_fc2/hai/155.npy     |      hai
features/vgg16_fc2/hai/173.npy     |      hai
features/vgg16_fc2/hai/61.npy     |      hai
features/vgg16_fc2/hai/137.npy     |      hai
features/vgg16_fc2/hai/46.npy     |      hai
features/vgg16_fc2/hai/174.npy     |      hai
features/vgg16_fc2/hai/160.npy     |      hai
features/vgg16_fc2/hai/14.npy     |      hai
features/vgg16_fc2/hai/184.npy     |      hai
features/vgg16_fc2/hai/146.npy     |      hai
features/vgg16_fc2/hai/97.npy     |      hai
features/vgg16_fc2/hai/132.npy     |      hai
features/vgg16_fc2/hai/170.npy     |      hai
features/vgg16_fc2/hai/21.npy     |      hai
features/vgg16_fc2/hai/87.npy     |      hai
features/vgg16_fc2/hai/138.npy     |      hai
features/vgg16_fc2/hai/167.npy     |      hai
features/vgg16_fc2/hai/6.npy     |      hai
features/vgg16_fc2/hai/151.npy     |      hai
features/vgg16_fc2/hai/91.npy     |      hai
features/vgg16_fc2/hai/18.npy     |      hai
features/vgg16_fc2/hai/29.npy     |      hai
features/vgg16_fc2/hai/171.npy     |      hai
features/vgg16_fc2/hai/80.npy     |      hai
features/vgg16_fc2/hai/36.npy     |      hai
features/vgg16_fc2/hai/188.npy     |      hai
features/vgg16_fc2/hai/116.npy     |      hai
features/vgg16_fc2/hai/55.npy     |      ba
features/vgg16_fc2/hai/7.npy     |      hai
features/vgg16_fc2/hai/142.npy     |      hai
features/vgg16_fc2/hai/57.npy     |      hai
features/vgg16_fc2/hai/90.npy     |      hai
features/vgg16_fc2/hai/13.npy     |      hai
features/vgg16_fc2/hai/52.npy     |      hai
features/vgg16_fc2/hai/85.npy     |      hai
features/vgg16_fc2/hai/130.npy     |      hai
features/vgg16_fc2/hai/120.npy     |      hai
features/vgg16_fc2/hai/133.npy     |      hai
features/vgg16_fc2/hai/140.npy     |      hai
features/vgg16_fc2/hai/25.npy     |      hai
features/vgg16_fc2/hai/143.npy     |      hai
features/vgg16_fc2/ba/97.npy     |      ba
features/vgg16_fc2/ba/184.npy     |      ba
features/vgg16_fc2/ba/133.npy     |      ba
features/vgg16_fc2/ba/132.npy     |      ba
features/vgg16_fc2/ba/72.npy     |      ba
features/vgg16_fc2/ba/34.npy     |      ba
features/vgg16_fc2/ba/185.npy     |      ba
features/vgg16_fc2/ba/129.npy     |      ba
features/vgg16_fc2/ba/110.npy     |      ba
features/vgg16_fc2/ba/123.npy     |      ba
features/vgg16_fc2/ba/173.npy     |      ba
features/vgg16_fc2/ba/59.npy     |      ba
features/vgg16_fc2/ba/42.npy     |      ba
features/vgg16_fc2/ba/196.npy     |      ba
features/vgg16_fc2/ba/192.npy     |      ba
features/vgg16_fc2/ba/58.npy     |      ba
features/vgg16_fc2/ba/95.npy     |      ba
features/vgg16_fc2/ba/194.npy     |      ba
features/vgg16_fc2/ba/92.npy     |      hai
features/vgg16_fc2/ba/116.npy     |      hai
features/vgg16_fc2/ba/5.npy     |      ba
features/vgg16_fc2/ba/135.npy     |      ba
features/vgg16_fc2/ba/186.npy     |      ba
features/vgg16_fc2/ba/9.npy     |      ba
features/vgg16_fc2/ba/198.npy     |      ba
features/vgg16_fc2/ba/29.npy     |      ba
features/vgg16_fc2/ba/49.npy     |      ba
features/vgg16_fc2/ba/6.npy     |      ba
features/vgg16_fc2/ba/39.npy     |      ba
features/vgg16_fc2/ba/74.npy     |      ba
features/vgg16_fc2/ba/200.npy     |      ba
features/vgg16_fc2/ba/141.npy     |      ba
features/vgg16_fc2/ba/27.npy     |      ba
features/vgg16_fc2/ba/162.npy     |      ba
features/vgg16_fc2/ba/149.npy     |      ba
features/vgg16_fc2/ba/170.npy     |      ba
features/vgg16_fc2/ba/73.npy     |      ba
features/vgg16_fc2/ba/54.npy     |      ba
features/vgg16_fc2/ba/7.npy     |      ba
features/vgg16_fc2/ba/146.npy     |      ba
features/vgg16_fc2/ba/89.npy     |      ba
features/vgg16_fc2/ba/140.npy     |      ba
features/vgg16_fc2/ba/128.npy     |      ba
features/vgg16_fc2/ba/157.npy     |      ba
features/vgg16_fc2/ba/11.npy     |      ba
features/vgg16_fc2/ba/22.npy     |      ba
features/vgg16_fc2/ba/158.npy     |      ba
features/vgg16_fc2/ba/145.npy     |      ba
features/vgg16_fc2/ba/176.npy     |      ba
features/vgg16_fc2/ba/47.npy     |      ba
features/vgg16_fc2/ba/167.npy     |      ba
features/vgg16_fc2/ba/191.npy     |      ba
features/vgg16_fc2/ba/79.npy     |      ba
features/vgg16_fc2/ba/174.npy     |      ba
features/vgg16_fc2/ba/153.npy     |      ba
features/vgg16_fc2/ba/168.npy     |      ba
features/vgg16_fc2/ba/51.npy     |      ba
features/vgg16_fc2/ba/83.npy     |      ba
features/vgg16_fc2/ba/99.npy     |      ba
features/vgg16_fc2/ba/40.npy     |      ba
features/vgg16_fc2/ba/100.npy     |      ba
features/vgg16_fc2/thumb/31.npy     |      thumb
features/vgg16_fc2/thumb/104.npy     |      thumb
features/vgg16_fc2/thumb/154.npy     |      thumb
features/vgg16_fc2/thumb/17.npy     |      thumb
features/vgg16_fc2/thumb/103.npy     |      thumb
features/vgg16_fc2/thumb/145.npy     |      thumb
features/vgg16_fc2/thumb/43.npy     |      thumb
features/vgg16_fc2/thumb/114.npy     |      thumb
features/vgg16_fc2/thumb/77.npy     |      thumb
features/vgg16_fc2/thumb/110.npy     |      thumb
features/vgg16_fc2/thumb/139.npy     |      thumb
features/vgg16_fc2/thumb/133.npy     |      thumb
features/vgg16_fc2/thumb/37.npy     |      thumb
features/vgg16_fc2/thumb/119.npy     |      thumb
features/vgg16_fc2/thumb/116.npy     |      thumb
features/vgg16_fc2/thumb/112.npy     |      thumb
features/vgg16_fc2/thumb/8.npy     |      thumb
features/vgg16_fc2/thumb/129.npy     |      thumb
features/vgg16_fc2/thumb/125.npy     |      thumb
features/vgg16_fc2/thumb/55.npy     |      thumb
features/vgg16_fc2/thumb/101.npy     |      thumb
features/vgg16_fc2/thumb/29.npy     |      thumb
features/vgg16_fc2/thumb/10.npy     |      thumb
features/vgg16_fc2/thumb/67.npy     |      thumb
features/vgg16_fc2/thumb/126.npy     |      thumb
features/vgg16_fc2/thumb/171.npy     |      thumb
features/vgg16_fc2/thumb/130.npy     |      thumb
features/vgg16_fc2/thumb/157.npy     |      thumb
features/vgg16_fc2/thumb/80.npy     |      thumb
features/vgg16_fc2/thumb/138.npy     |      thumb
features/vgg16_fc2/thumb/74.npy     |      thumb
features/vgg16_fc2/thumb/142.npy     |      thumb
features/vgg16_fc2/thumb/163.npy     |      thumb
features/vgg16_fc2/thumb/26.npy     |      thumb
features/vgg16_fc2/thumb/34.npy     |      thumb
features/vgg16_fc2/thumb/169.npy     |      thumb
features/vgg16_fc2/thumb/160.npy     |      thumb
features/vgg16_fc2/thumb/117.npy     |      thumb
features/vgg16_fc2/thumb/59.npy     |      thumb
features/vgg16_fc2/thumb/76.npy     |      thumb
features/vgg16_fc2/thumb/165.npy     |      thumb
features/vgg16_fc2/thumb/47.npy     |      thumb
features/vgg16_fc2/thumb/176.npy     |      thumb
features/vgg16_fc2/thumb/161.npy     |      thumb
features/vgg16_fc2/thumb/102.npy     |      thumb
features/vgg16_fc2/thumb/38.npy     |      thumb
features/vgg16_fc2/thumb/83.npy     |      thumb
features/vgg16_fc2/thumb/46.npy     |      thumb
features/vgg16_fc2/thumb/158.npy     |      thumb
features/vgg16_fc2/thumb/20.npy     |      thumb
features/vgg16_fc2/thumb/105.npy     |      thumb
features/vgg16_fc2/thumb/136.npy     |      thumb
features/vgg16_fc2/thumb/49.npy     |      thumb
features/vgg16_fc2/thumb/33.npy     |      thumb
